<?xml version="1.0" encoding="iso-8859-1"?>
<!-- Generator: Adobe Illustrator 19.0.0, SVG Export Plug-In . SVG Version: 6.00 Build 0)  -->
<svg version="1.1" id="Layer_1" xmlns="http://www.w3.org/2000/svg" xmlns:xlink="http://www.w3.org/1999/xlink" x="0px" y="0px"
	 viewBox="0 0 60 60" style="enable-background:new 0 0 60 60;" xml:space="preserve">
<path  d="M58.007 25.619c-.684-.94-1.33-1.828-1.565-2.704-.249-.933-.133-2.058-.01-3.248.16-1.55.342-3.307-.447-4.67-.803-1.388-2.429-2.111-3.864-2.748-1.083-.482-2.105-.938-2.768-1.601-.665-.663-1.118-1.683-1.598-2.762-.639-1.438-1.364-3.067-2.751-3.87-.696-.403-1.526-.59-2.611-.59-.679 0-1.38.072-2.058.142-.68.071-1.322.137-1.938.137-.512 0-.94-.048-1.31-.146-.88-.235-1.766-.881-2.704-1.564C33.099 1.059 31.644 0 30 0c-1.645 0-3.099 1.059-4.381 1.994-.94.684-1.827 1.33-2.703 1.564a5.098 5.098 0 0 1-1.312.147c-.618 0-1.259-.067-1.938-.137-.68-.07-1.38-.142-2.058-.142-1.085 0-1.915.188-2.61.59-1.387.802-2.11 2.427-2.747 3.86-.483 1.085-.939 2.11-1.602 2.772-.663.664-1.681 1.117-2.759 1.597-1.439.639-3.069 1.364-3.873 2.752-.789 1.365-.608 3.12-.447 4.668.123 1.193.239 2.32-.01 3.25-.235.877-.88 1.763-1.563 2.701C1.06 26.9 0 28.355 0 30c0 1.645 1.059 3.099 1.994 4.381.684.94 1.33 1.827 1.564 2.703.249.931.134 2.052.011 3.239-.135 1.307-.289 2.788.149 4.027l.212.601-.027.027c.488.646 1.151 1.161 1.848 1.703l.03.024c.67.413 1.428.75 2.097 1.047 1.084.482 2.105.937 2.769 1.6.665.666 1.119 1.687 1.599 2.767.639 1.436 1.362 3.063 2.749 3.866.696.403 1.526.59 2.611.59.685 0 1.413-.076 2.054-.143.688-.071 1.332-.137 1.942-.137.511 0 .939.048 1.309.146l.126.037 1.576.487-.078.082c.516.256 1.024.682 1.541 1.293l.205.144C27.401 59.272 28.626 60 30 60c1.374 0 2.598-.728 3.716-1.515l.696-.489.013.013c.255-.224.538-.428.859-.618.086-.07.174-.139.262-.205l-.206-.206 1.6-.495c.063-.02.105-.033.147-.044.366-.098.795-.146 1.31-.146.606 0 1.237.065 1.906.133l.052.006c.671.069 1.367.141 2.037.141 1.084 0 1.914-.188 2.612-.591 1.387-.803 2.11-2.429 2.747-3.863.482-1.084.937-2.106 1.6-2.769.666-.666 1.687-1.12 2.768-1.6.776-.345 1.655-.735 2.399-1.243l.692-.472.08.08c.348-.302.693-.647.894-1.049l-.117-.117.212-.601c.438-1.239.285-2.715.15-4.017-.123-1.191-.239-2.316.01-3.248.235-.877.879-1.762 1.561-2.699.939-1.285 2-2.741 2-4.386s-1.059-3.099-1.993-4.381zm-1.108 7.949c-.73 1.002-1.484 2.037-1.784 3.162-.315 1.178-.18 2.482-.049 3.743.145 1.408.295 2.864-.271 3.842-.577.999-1.924 1.598-3.226 2.177-1.153.513-2.344 1.043-3.188 1.887-.846.846-1.374 2.034-1.884 3.182-.581 1.305-1.181 2.654-2.182 3.233-.471.273-1.1.406-1.922.406-.607 0-1.243-.066-1.916-.135-.684-.071-1.39-.144-2.08-.144-.633 0-1.178.063-1.667.193-1.123.301-2.156 1.053-3.154 1.781-1.223.89-2.378 1.731-3.575 1.731-1.198 0-2.351-.84-3.572-1.729-1.002-.729-2.035-1.482-3.159-1.782-.488-.13-1.033-.193-1.665-.193-.691 0-1.396.073-2.078.144-.677.07-1.312.136-1.918.136-.82 0-1.449-.133-1.922-.406-1.002-.58-1.601-1.928-2.181-3.231-.511-1.149-1.039-2.337-1.885-3.184-.844-.844-2.03-1.371-3.177-1.882-1.307-.581-2.658-1.182-3.238-2.182-.566-.979-.416-2.432-.271-3.837.131-1.265.266-2.573-.049-3.75-.301-1.126-1.053-2.159-1.781-3.157-.89-1.222-1.73-2.376-1.73-3.573 0-1.198.84-2.351 1.729-3.572.729-1.001 1.482-2.035 1.782-3.159.315-1.174.18-2.477.05-3.738-.145-1.411-.295-2.87.27-3.846.58-1.001 1.928-1.601 3.232-2.181 1.149-.51 2.336-1.038 3.184-1.885.844-.845 1.372-2.032 1.883-3.181.58-1.305 1.179-2.654 2.181-3.234.472-.272 1.101-.404 1.922-.404.61 0 1.245.066 1.918.135.684.071 1.39.144 2.078.144.635 0 1.18-.063 1.666-.193 1.126-.302 2.159-1.054 3.157-1.781 1.224-.89 2.38-1.731 3.575-1.731 1.195 0 2.347.838 3.566 1.725 1.002.73 2.036 1.485 3.166 1.787.485.13 1.03.193 1.665.193.688 0 1.394-.073 2.077-.144.674-.07 1.309-.136 1.919-.136.822 0 1.451.133 1.923.406 1.001.58 1.601 1.928 2.181 3.232.51 1.148 1.038 2.335 1.885 3.183.844.844 2.031 1.372 3.179 1.882 1.306.581 2.656 1.182 3.235 2.182.566.978.416 2.432.271 3.838-.131 1.264-.266 2.571.049 3.747.3 1.125 1.052 2.158 1.779 3.156.891 1.223 1.732 2.378 1.732 3.575-.003 1.196-.842 2.348-1.73 3.568z"></path><path d="M16.16 36.81l6.471-5.851c2.851-2.603 3.843-4.091 3.843-5.925 0-2.256-1.835-3.719-3.917-3.719-2.207 0-3.645 1.141-5.083 3.223l-.967-.645c1.512-2.306 3.124-3.719 6.173-3.719 2.95 0 5.157 2.058 5.157 4.76v.05c0 2.38-1.289 3.967-4.339 6.744l-5.306 4.81h9.818v1.24H16.16v-.968zM31.307 36.339c-1.438-1.438-2.207-3.173-2.207-6.768v-.05c0-5.231 2.752-9.396 7.066-9.396 1.983 0 3.496.769 5.008 2.008l-.818.992c-1.339-1.19-2.653-1.835-4.289-1.835-3.496 0-5.677 3.62-5.677 8.504v.496c1.215-2.058 2.95-3.223 5.429-3.223 3.149 0 5.975 2.157 5.975 5.256v.05c0 3.273-2.653 5.702-6.074 5.702-1.785-.001-3.372-.695-4.413-1.736zm9.149-3.917v-.05c0-2.38-1.959-4.165-4.711-4.165-2.851 0-4.834 2.157-4.834 4.289v.05c0 2.479 2.107 4.363 4.909 4.363 2.801 0 4.636-2.033 4.636-4.487z"></path><path d="M30 7.839c-12.17 0-22.07 9.901-22.07 22.07 0 12.17 9.901 22.07 22.07 22.07s22.07-9.901 22.07-22.07S42.17 7.839 30 7.839zm0 42.928c-11.501 0-20.858-9.357-20.858-20.858C9.142 18.408 18.499 9.051 30 9.051s20.858 9.357 20.858 20.858c0 11.501-9.357 20.858-20.858 20.858z"></path>
</svg>
